<?xml version="1.0" encoding="utf-8"?>
<!-- Generator: Adobe Illustrator 16.0.0, SVG Export Plug-In . SVG Version: 6.00 Build 0)  -->
<!DOCTYPE svg PUBLIC "-//W3C//DTD SVG 1.1//EN" "http://www.w3.org/Graphics/SVG/1.1/DTD/svg11.dtd">
<svg version="1.1" id="Layer_1" xmlns="http://www.w3.org/2000/svg" xmlns:xlink="http://www.w3.org/1999/xlink" x="0px" y="0px"
	 width="280.013px" height="225.08px" viewBox="-6.931 -55.398 280.013 225.08"
	 enable-background="new -6.931 -55.398 280.013 225.08" xml:space="preserve">
<g>
	<g>
		<g>
			<path fill="#FF333D" d="M60.149,34.161h27.876c10.308-33.681,42.547-58.336,79.408-58.336c17.646,0,33.663,6.444,47.479,15.335
				c6.991,4.5,16.273,3.638,21.507-3.005c4.915-6.237,6.921-16.324-5.914-24.169c-21.031-12.855-37.169-19.385-63.071-19.385
				c-54.17,0-100.688,38.474-111.634,89.531C57.237,34.15,58.684,34.161,60.149,34.161z"/>
			<path fill="#FF333D" d="M241.095,57.142c0,7.765-0.865,15.278-2.527,22.397c-7.937,33.981-34.062,58.92-71.134,58.92
				c-31.237,0-59.154-17.708-73.22-43.609H60.149c-0.035,0-0.068-0.001-0.102-0.001c15.942,43.565,58.553,74.833,107.386,74.833
				c62.054,0,104.884-50.485,104.884-112.54H241.095z"/>
		</g>
		<path fill="#FF333D" d="M170.845,27.839"/>
		<path fill="#FF333D" d="M272.043,66.036c0-4.571,1.04-16.563,1.04-16.563s-27.298,0-31.874,0h-105.07H60.149
			c-38.095,0-67.08-5.798-67.08-5.798s26.501,35.863,67.08,35.863h2.36h77.458h125.46L272.043,66.036z"/>
	</g>
</g>
</svg>
